[
    {
        "name":"CollectionOrder",
        "policy":"OR('manufacturer-acid-com.member','lab-acid-com.member')",
        "requiredPeerCount":1,
        "maxPeerCount":1,
        "blockToLive":0,
        "memberOnlyRead":true
    },
    {
        "name":"ValidationOrder",
        "policy":"AND('police-acid-com.member')",
        "requiredPeerCount":1,
        "maxPeerCount":1,
        "blockToLive":0,
        "memberOnlyRead":true
    }

    ]